{
	"info": {
		"_postman_id": "7644d9c2-cb40-4f7e-9086-883060b70551",
		"name": "ИБ",
		"schema": "https://schema.getpostman.com/json/collection/v2.1.0/collection.json",
		"_exporter_id": "12908547"
	},
	"item": [
		{
			"name": "New Folder",
			"item": [
				{
					"name": "bankBins",
					"event": [
						{
							"listen": "prerequest",
							"script": {
								"exec": [
									""
								],
								"type": "text/javascript"
							}
						},
						{
							"listen": "test",
							"script": {
								"exec": [
									"pm.test(\"200\", function () {\r",
									"    pm.response.to.have.status(200);\r",
									"});"
								],
								"type": "text/javascript"
							}
						}
					],
					"request": {
						"method": "GET",
						"header": [
							{
								"key": "Accept",
								"value": "application/json",
								"type": "text"
							}
						],
						"url": {
							"raw": "http://192.168.13.53:8086/api/v1/vocs/bankBins",
							"protocol": "http",
							"host": [
								"192",
								"168",
								"13",
								"53"
							],
							"port": "8086",
							"path": [
								"api",
								"v1",
								"vocs",
								"bankBins"
							]
						}
					},
					"response": []
				},
				{
					"name": "userIdentityByPhone",
					"event": [
						{
							"listen": "test",
							"script": {
								"exec": [
									"pm.test(\"Status code is 200\", function () {\r",
									"    pm.response.to.have.status(200);\r",
									"});"
								],
								"type": "text/javascript"
							}
						}
					],
					"protocolProfileBehavior": {
						"tlsPreferServerCiphers": false,
						"followRedirects": true
					},
					"request": {
						"method": "POST",
						"header": [
							{
								"key": "Accept",
								"value": "application/json",
								"type": "text"
							},
							{
								"key": "Content-Type",
								"value": "application/json",
								"type": "text"
							}
						],
						"body": {
							"mode": "raw",
							"raw": "{\r\n    \"loginWay\": \"1\",\r\n     \"phoneNumber\": \"+375(29)881-53-61\"\r\n}"
						},
						"url": {
							"raw": "http://192.168.13.53:8086//api/v1/login/userIdentityByPhone",
							"protocol": "http",
							"host": [
								"192",
								"168",
								"13",
								"53"
							],
							"port": "8086",
							"path": [
								"",
								"api",
								"v1",
								"login",
								"userIdentityByPhone"
							]
						}
					},
					"response": []
				},
				{
					"name": "checkPassword4",
					"event": [
						{
							"listen": "test",
							"script": {
								"exec": [
									"pm.test(\"Status code is 200\", function () {\r",
									"    pm.response.to.have.status(200);\r",
									"});"
								],
								"type": "text/javascript"
							}
						}
					],
					"request": {
						"method": "POST",
						"header": [
							{
								"key": "Content-Type",
								"value": "application/json",
								"type": "text"
							},
							{
								"key": "Accept",
								"value": "application/json",
								"type": "text"
							}
						],
						"body": {
							"mode": "raw",
							"raw": "{\r\n    \"password\": \"Qwe12345!\"\r\n}"
						},
						"url": {
							"raw": "http://192.168.13.53:8086/api/v1/login/checkPassword4",
							"protocol": "http",
							"host": [
								"192",
								"168",
								"13",
								"53"
							],
							"port": "8086",
							"path": [
								"api",
								"v1",
								"login",
								"checkPassword4"
							]
						}
					},
					"response": []
				},
				{
					"name": "isAuthenticated",
					"event": [
						{
							"listen": "test",
							"script": {
								"exec": [
									"pm.test(\"Status code is 200\", function () {\r",
									"    pm.response.to.have.status(200);\r",
									"});"
								],
								"type": "text/javascript"
							}
						}
					],
					"request": {
						"method": "GET",
						"header": [
							{
								"key": "Accept",
								"value": "application/json",
								"type": "text"
							},
							{
								"key": "Content-Type",
								"value": "application/json",
								"type": "text"
							}
						],
						"url": {
							"raw": "http://192.168.13.53:8086/api/v1/user/isAuthenticated",
							"protocol": "http",
							"host": [
								"192",
								"168",
								"13",
								"53"
							],
							"port": "8086",
							"path": [
								"api",
								"v1",
								"user",
								"isAuthenticated"
							]
						}
					},
					"response": []
				},
				{
					"name": "loadUserRole",
					"event": [
						{
							"listen": "test",
							"script": {
								"exec": [
									"pm.test(\"Status code is 200\", function () {\r",
									"    pm.response.to.have.status(200);\r",
									"});"
								],
								"type": "text/javascript"
							}
						}
					],
					"request": {
						"method": "POST",
						"header": [
							{
								"key": "Accept",
								"value": "application/json",
								"type": "text"
							},
							{
								"key": "Content-Type",
								"value": "application/json",
								"type": "text"
							}
						],
						"body": {
							"mode": "raw",
							"raw": "{\"contractNum\": \"IB_I/1145759\", \"status\": \"REGISTERED\", \"role\": \"F\",\r\n                                 \"name\": \"Цвирко Д.В.\", \"longname\": \"Цвирко Дмитрий Вадимович\"}"
						},
						"url": {
							"raw": "http://192.168.13.53:8086/api/v1/user/userRole",
							"protocol": "http",
							"host": [
								"192",
								"168",
								"13",
								"53"
							],
							"port": "8086",
							"path": [
								"api",
								"v1",
								"user",
								"userRole"
							]
						}
					},
					"response": []
				},
				{
					"name": "LoadUser",
					"event": [
						{
							"listen": "test",
							"script": {
								"exec": [
									"pm.test(\"Status code is 200\", function () {\r",
									"    pm.response.to.have.status(200);\r",
									"});"
								],
								"type": "text/javascript"
							}
						}
					],
					"request": {
						"method": "GET",
						"header": [
							{
								"key": "Accept",
								"value": "application/json",
								"type": "text"
							}
						],
						"url": {
							"raw": "http://192.168.13.53:8086/api/v1/user/loadUser",
							"protocol": "http",
							"host": [
								"192",
								"168",
								"13",
								"53"
							],
							"port": "8086",
							"path": [
								"api",
								"v1",
								"user",
								"loadUser"
							]
						}
					},
					"response": []
				},
				{
					"name": "logout",
					"event": [
						{
							"listen": "test",
							"script": {
								"exec": [
									"pm.test(\"Status code is 200\", function () {\r",
									"    pm.response.to.have.status(200);\r",
									"});\r",
									""
								],
								"type": "text/javascript"
							}
						}
					],
					"request": {
						"method": "GET",
						"header": [
							{
								"key": "Accept",
								"value": "application/json",
								"type": "text"
							},
							{
								"key": "Content-Type",
								"value": "application/json",
								"type": "text"
							}
						],
						"url": {
							"raw": "http://192.168.13.53:8086/api/v1/user/logout",
							"protocol": "http",
							"host": [
								"192",
								"168",
								"13",
								"53"
							],
							"port": "8086",
							"path": [
								"api",
								"v1",
								"user",
								"logout"
							]
						}
					},
					"response": []
				}
			]
		}
	]
}